%YAML 1.1
%TAG !u! tag:unity3d.com,2011:
--- !u!114 &11400000
MonoBehaviour:
  m_ObjectHideFlags: 0
  m_PrefabParentObject: {fileID: 0}
  m_PrefabInternal: {fileID: 0}
  m_GameObject: {fileID: 0}
  m_Enabled: 1
  m_EditorHideFlags: 0
  m_Script: {fileID: 11500000, guid: 7620e4aeb2275e34f87526635b8baf1a, type: 3}
  m_Name: SerumParticles
  m_EditorClassIdentifier: 
  particleEffect: {fileID: 1746258722886856, guid: d161b3074002cc3478051a459a6b94e0,
    type: 2}
