%YAML 1.1
%TAG !u! tag:unity3d.com,2011:
--- !u!114 &11400000
MonoBehaviour:
  m_ObjectHideFlags: 0
  m_PrefabParentObject: {fileID: 0}
  m_PrefabInternal: {fileID: 0}
  m_GameObject: {fileID: 0}
  m_Enabled: 1
  m_EditorHideFlags: 0
  m_Script: {fileID: 11500000, guid: 75e7ee7af6f47c7408431397864db9c2, type: 3}
  m_Name: VialSpawnBlast
  m_EditorClassIdentifier: 
  objectToSpawn: {fileID: 1997749023986604, guid: d12f87d49c27e2144a759805cb88140c,
    type: 2}
