%YAML 1.1
%TAG !u! tag:unity3d.com,2011:
--- !u!114 &11400000
MonoBehaviour:
  m_ObjectHideFlags: 0
  m_PrefabParentObject: {fileID: 0}
  m_PrefabInternal: {fileID: 0}
  m_GameObject: {fileID: 0}
  m_Enabled: 1
  m_EditorHideFlags: 0
  m_Script: {fileID: 11500000, guid: 7620e4aeb2275e34f87526635b8baf1a, type: 3}
  m_Name: FrenzyParticles1
  m_EditorClassIdentifier: 
  particleEffect: {fileID: 1453844525561062, guid: def0c85666b895042846b84b525dc81f,
    type: 2}
