%YAML 1.1
%TAG !u! tag:unity3d.com,2011:
--- !u!114 &11400000
MonoBehaviour:
  m_ObjectHideFlags: 0
  m_PrefabParentObject: {fileID: 0}
  m_PrefabInternal: {fileID: 0}
  m_GameObject: {fileID: 0}
  m_Enabled: 1
  m_EditorHideFlags: 0
  m_Script: {fileID: 11500000, guid: d4d4dada77e136c46b24e1d694a30c1c, type: 3}
  m_Name: FrenzyRegeneration
  m_EditorClassIdentifier: 
  regenerationTickDuration: 24
  regenerationIntervalInSeconds: 0.5
  regenerationHealthPotencityPerTick: 2
