%YAML 1.1
%TAG !u! tag:unity3d.com,2011:
--- !u!114 &11400000
MonoBehaviour:
  m_ObjectHideFlags: 0
  m_PrefabParentObject: {fileID: 0}
  m_PrefabInternal: {fileID: 0}
  m_GameObject: {fileID: 0}
  m_Enabled: 1
  m_EditorHideFlags: 0
  m_Script: {fileID: 11500000, guid: 7b385dcff34a881428c499cb5f6cb450, type: 3}
  m_Name: FrenzyDamageBonus2
  m_EditorClassIdentifier: 
  damageModifierStrenght: 12
  duration: 9
  isPercentage: 0
