%YAML 1.1
%TAG !u! tag:unity3d.com,2011:
--- !u!29 &1
OcclusionCullingSettings:
  m_ObjectHideFlags: 0
  serializedVersion: 2
  m_OcclusionBakeSettings:
    smallestOccluder: 5
    smallestHole: 0.25
    backfaceThreshold: 100
  m_SceneGUID: 00000000000000000000000000000000
  m_OcclusionCullingData: {fileID: 0}
--- !u!104 &2
RenderSettings:
  m_ObjectHideFlags: 0
  serializedVersion: 8
  m_Fog: 0
  m_FogColor: {r: 0.5, g: 0.5, b: 0.5, a: 1}
  m_FogMode: 3
  m_FogDensity: 0.01
  m_LinearFogStart: 0
  m_LinearFogEnd: 300
  m_AmbientSkyColor: {r: 0.212, g: 0.227, b: 0.259, a: 1}
  m_AmbientEquatorColor: {r: 0.114, g: 0.125, b: 0.133, a: 1}
  m_AmbientGroundColor: {r: 0.047, g: 0.043, b: 0.035, a: 1}
  m_AmbientIntensity: 1
  m_AmbientMode: 3
  m_SubtractiveShadowColor: {r: 0.42, g: 0.478, b: 0.627, a: 1}
  m_SkyboxMaterial: {fileID: 0}
  m_HaloStrength: 0.5
  m_FlareStrength: 1
  m_FlareFadeSpeed: 3
  m_HaloTexture: {fileID: 0}
  m_SpotCookie: {fileID: 10001, guid: 0000000000000000e000000000000000, type: 0}
  m_DefaultReflectionMode: 0
  m_DefaultReflectionResolution: 128
  m_ReflectionBounces: 1
  m_ReflectionIntensity: 1
  m_CustomReflection: {fileID: 0}
  m_Sun: {fileID: 0}
  m_IndirectSpecularColor: {r: 0, g: 0, b: 0, a: 1}
--- !u!157 &3
LightmapSettings:
  m_ObjectHideFlags: 0
  serializedVersion: 11
  m_GIWorkflowMode: 1
  m_GISettings:
    serializedVersion: 2
    m_BounceScale: 1
    m_IndirectOutputScale: 1
    m_AlbedoBoost: 1
    m_TemporalCoherenceThreshold: 1
    m_EnvironmentLightingMode: 0
    m_EnableBakedLightmaps: 0
    m_EnableRealtimeLightmaps: 0
  m_LightmapEditorSettings:
    serializedVersion: 9
    m_Resolution: 2
    m_BakeResolution: 40
    m_TextureWidth: 1024
    m_TextureHeight: 1024
    m_AO: 0
    m_AOMaxDistance: 1
    m_CompAOExponent: 1
    m_CompAOExponentDirect: 0
    m_Padding: 2
    m_LightmapParameters: {fileID: 0}
    m_LightmapsBakeMode: 1
    m_TextureCompression: 1
    m_FinalGather: 0
    m_FinalGatherFiltering: 1
    m_FinalGatherRayCount: 256
    m_ReflectionCompression: 2
    m_MixedBakeMode: 2
    m_BakeBackend: 0
    m_PVRSampling: 1
    m_PVRDirectSampleCount: 32
    m_PVRSampleCount: 500
    m_PVRBounces: 2
    m_PVRFiltering: 0
    m_PVRFilteringMode: 1
    m_PVRCulling: 1
    m_PVRFilteringGaussRadiusDirect: 1
    m_PVRFilteringGaussRadiusIndirect: 5
    m_PVRFilteringGaussRadiusAO: 2
    m_PVRFilteringAtrousColorSigma: 1
    m_PVRFilteringAtrousNormalSigma: 1
    m_PVRFilteringAtrousPositionSigma: 1
  m_LightingDataAsset: {fileID: 0}
  m_UseShadowmask: 1
--- !u!196 &4
NavMeshSettings:
  serializedVersion: 2
  m_ObjectHideFlags: 0
  m_BuildSettings:
    serializedVersion: 2
    agentTypeID: 0
    agentRadius: 0.5
    agentHeight: 2
    agentSlope: 45
    agentClimb: 0.4
    ledgeDropHeight: 0
    maxJumpAcrossDistance: 0
    minRegionArea: 2
    manualCellSize: 0
    cellSize: 0.16666667
    manualTileSize: 0
    tileSize: 256
    accuratePlacement: 0
  m_NavMeshData: {fileID: 0}
--- !u!1001 &1833057958
Prefab:
  m_ObjectHideFlags: 0
  serializedVersion: 2
  m_Modification:
    m_TransformParent: {fileID: 0}
    m_Modifications:
    - target: {fileID: 224705924246501772, guid: 71fcc30900666774cb7f7948cbf1ed00,
        type: 2}
      propertyPath: m_LocalPosition.x
      value: 0
      objectReference: {fileID: 0}
    - target: {fileID: 224705924246501772, guid: 71fcc30900666774cb7f7948cbf1ed00,
        type: 2}
      propertyPath: m_LocalPosition.y
      value: 0
      objectReference: {fileID: 0}
    - target: {fileID: 224705924246501772, guid: 71fcc30900666774cb7f7948cbf1ed00,
        type: 2}
      propertyPath: m_LocalPosition.z
      value: 0
      objectReference: {fileID: 0}
    - target: {fileID: 224705924246501772, guid: 71fcc30900666774cb7f7948cbf1ed00,
        type: 2}
      propertyPath: m_LocalRotation.x
      value: 0
      objectReference: {fileID: 0}
    - target: {fileID: 224705924246501772, guid: 71fcc30900666774cb7f7948cbf1ed00,
        type: 2}
      propertyPath: m_LocalRotation.y
      value: 0
      objectReference: {fileID: 0}
    - target: {fileID: 224705924246501772, guid: 71fcc30900666774cb7f7948cbf1ed00,
        type: 2}
      propertyPath: m_LocalRotation.z
      value: 0
      objectReference: {fileID: 0}
    - target: {fileID: 224705924246501772, guid: 71fcc30900666774cb7f7948cbf1ed00,
        type: 2}
      propertyPath: m_LocalRotation.w
      value: 1
      objectReference: {fileID: 0}
    - target: {fileID: 224705924246501772, guid: 71fcc30900666774cb7f7948cbf1ed00,
        type: 2}
      propertyPath: m_RootOrder
      value: 0
      objectReference: {fileID: 0}
    - target: {fileID: 224705924246501772, guid: 71fcc30900666774cb7f7948cbf1ed00,
        type: 2}
      propertyPath: m_AnchoredPosition.x
      value: 0
      objectReference: {fileID: 0}
    - target: {fileID: 224705924246501772, guid: 71fcc30900666774cb7f7948cbf1ed00,
        type: 2}
      propertyPath: m_AnchoredPosition.y
      value: 0
      objectReference: {fileID: 0}
    - target: {fileID: 224705924246501772, guid: 71fcc30900666774cb7f7948cbf1ed00,
        type: 2}
      propertyPath: m_SizeDelta.x
      value: 0
      objectReference: {fileID: 0}
    - target: {fileID: 224705924246501772, guid: 71fcc30900666774cb7f7948cbf1ed00,
        type: 2}
      propertyPath: m_SizeDelta.y
      value: 0
      objectReference: {fileID: 0}
    - target: {fileID: 224705924246501772, guid: 71fcc30900666774cb7f7948cbf1ed00,
        type: 2}
      propertyPath: m_AnchorMin.x
      value: 0
      objectReference: {fileID: 0}
    - target: {fileID: 224705924246501772, guid: 71fcc30900666774cb7f7948cbf1ed00,
        type: 2}
      propertyPath: m_AnchorMin.y
      value: 0
      objectReference: {fileID: 0}
    - target: {fileID: 224705924246501772, guid: 71fcc30900666774cb7f7948cbf1ed00,
        type: 2}
      propertyPath: m_AnchorMax.x
      value: 0
      objectReference: {fileID: 0}
    - target: {fileID: 224705924246501772, guid: 71fcc30900666774cb7f7948cbf1ed00,
        type: 2}
      propertyPath: m_AnchorMax.y
      value: 0
      objectReference: {fileID: 0}
    - target: {fileID: 224705924246501772, guid: 71fcc30900666774cb7f7948cbf1ed00,
        type: 2}
      propertyPath: m_Pivot.x
      value: 0
      objectReference: {fileID: 0}
    - target: {fileID: 224705924246501772, guid: 71fcc30900666774cb7f7948cbf1ed00,
        type: 2}
      propertyPath: m_Pivot.y
      value: 0
      objectReference: {fileID: 0}
    - target: {fileID: 1130997009206248, guid: 71fcc30900666774cb7f7948cbf1ed00, type: 2}
      propertyPath: m_IsActive
      value: 1
      objectReference: {fileID: 0}
    - target: {fileID: 114695622429479280, guid: 71fcc30900666774cb7f7948cbf1ed00,
        type: 2}
      propertyPath: m_Sprite
      value: 
      objectReference: {fileID: 21300000, guid: cb89344c14f0ece4aad3d94e7c5adc63,
        type: 3}
    - target: {fileID: 114963062469750890, guid: 71fcc30900666774cb7f7948cbf1ed00,
        type: 2}
      propertyPath: m_FontData.m_Font
      value: 
      objectReference: {fileID: 12800000, guid: ed15c8dd8fa0c0f4e9e7e33cdbbbbeec,
        type: 3}
    - target: {fileID: 114963062469750890, guid: 71fcc30900666774cb7f7948cbf1ed00,
        type: 2}
      propertyPath: m_FontData.m_BestFit
      value: 0
      objectReference: {fileID: 0}
    - target: {fileID: 114963062469750890, guid: 71fcc30900666774cb7f7948cbf1ed00,
        type: 2}
      propertyPath: m_Text
      value: Restart Level
      objectReference: {fileID: 0}
    - target: {fileID: 224629601573932970, guid: 71fcc30900666774cb7f7948cbf1ed00,
        type: 2}
      propertyPath: m_AnchorMin.x
      value: 0.15
      objectReference: {fileID: 0}
    - target: {fileID: 224629601573932970, guid: 71fcc30900666774cb7f7948cbf1ed00,
        type: 2}
      propertyPath: m_AnchoredPosition.x
      value: 0
      objectReference: {fileID: 0}
    - target: {fileID: 224629601573932970, guid: 71fcc30900666774cb7f7948cbf1ed00,
        type: 2}
      propertyPath: m_SizeDelta.x
      value: 0
      objectReference: {fileID: 0}
    - target: {fileID: 224629601573932970, guid: 71fcc30900666774cb7f7948cbf1ed00,
        type: 2}
      propertyPath: m_AnchorMax.x
      value: 0.45
      objectReference: {fileID: 0}
    - target: {fileID: 224629601573932970, guid: 71fcc30900666774cb7f7948cbf1ed00,
        type: 2}
      propertyPath: m_AnchorMin.y
      value: 0.2
      objectReference: {fileID: 0}
    - target: {fileID: 224629601573932970, guid: 71fcc30900666774cb7f7948cbf1ed00,
        type: 2}
      propertyPath: m_AnchoredPosition.y
      value: 0
      objectReference: {fileID: 0}
    - target: {fileID: 224629601573932970, guid: 71fcc30900666774cb7f7948cbf1ed00,
        type: 2}
      propertyPath: m_SizeDelta.y
      value: 0
      objectReference: {fileID: 0}
    - target: {fileID: 224629601573932970, guid: 71fcc30900666774cb7f7948cbf1ed00,
        type: 2}
      propertyPath: m_AnchorMax.y
      value: 0.4
      objectReference: {fileID: 0}
    - target: {fileID: 224998846749200580, guid: 71fcc30900666774cb7f7948cbf1ed00,
        type: 2}
      propertyPath: m_AnchorMax.x
      value: 0.85
      objectReference: {fileID: 0}
    - target: {fileID: 224998846749200580, guid: 71fcc30900666774cb7f7948cbf1ed00,
        type: 2}
      propertyPath: m_AnchoredPosition.x
      value: 0
      objectReference: {fileID: 0}
    - target: {fileID: 224998846749200580, guid: 71fcc30900666774cb7f7948cbf1ed00,
        type: 2}
      propertyPath: m_SizeDelta.x
      value: 0
      objectReference: {fileID: 0}
    - target: {fileID: 224998846749200580, guid: 71fcc30900666774cb7f7948cbf1ed00,
        type: 2}
      propertyPath: m_AnchorMin.x
      value: 0.55
      objectReference: {fileID: 0}
    - target: {fileID: 224998846749200580, guid: 71fcc30900666774cb7f7948cbf1ed00,
        type: 2}
      propertyPath: m_AnchorMin.y
      value: 0.2
      objectReference: {fileID: 0}
    - target: {fileID: 224998846749200580, guid: 71fcc30900666774cb7f7948cbf1ed00,
        type: 2}
      propertyPath: m_AnchoredPosition.y
      value: 0
      objectReference: {fileID: 0}
    - target: {fileID: 224998846749200580, guid: 71fcc30900666774cb7f7948cbf1ed00,
        type: 2}
      propertyPath: m_SizeDelta.y
      value: 0
      objectReference: {fileID: 0}
    - target: {fileID: 224998846749200580, guid: 71fcc30900666774cb7f7948cbf1ed00,
        type: 2}
      propertyPath: m_AnchorMax.y
      value: 0.4
      objectReference: {fileID: 0}
    - target: {fileID: 114075299948675792, guid: 71fcc30900666774cb7f7948cbf1ed00,
        type: 2}
      propertyPath: m_Sprite
      value: 
      objectReference: {fileID: 21300000, guid: cb89344c14f0ece4aad3d94e7c5adc63,
        type: 3}
    - target: {fileID: 114368908160188420, guid: 71fcc30900666774cb7f7948cbf1ed00,
        type: 2}
      propertyPath: m_FontData.m_Font
      value: 
      objectReference: {fileID: 12800000, guid: ed15c8dd8fa0c0f4e9e7e33cdbbbbeec,
        type: 3}
    - target: {fileID: 114368908160188420, guid: 71fcc30900666774cb7f7948cbf1ed00,
        type: 2}
      propertyPath: m_FontData.m_BestFit
      value: 0
      objectReference: {fileID: 0}
    - target: {fileID: 114075299948675792, guid: 71fcc30900666774cb7f7948cbf1ed00,
        type: 2}
      propertyPath: m_FillCenter
      value: 1
      objectReference: {fileID: 0}
    - target: {fileID: 114695622429479280, guid: 71fcc30900666774cb7f7948cbf1ed00,
        type: 2}
      propertyPath: m_FillCenter
      value: 1
      objectReference: {fileID: 0}
    - target: {fileID: 114963062469750890, guid: 71fcc30900666774cb7f7948cbf1ed00,
        type: 2}
      propertyPath: m_FontData.m_FontSize
      value: 25
      objectReference: {fileID: 0}
    - target: {fileID: 114368908160188420, guid: 71fcc30900666774cb7f7948cbf1ed00,
        type: 2}
      propertyPath: m_FontData.m_FontSize
      value: 25
      objectReference: {fileID: 0}
    - target: {fileID: 114368908160188420, guid: 71fcc30900666774cb7f7948cbf1ed00,
        type: 2}
      propertyPath: m_FontData.m_Alignment
      value: 4
      objectReference: {fileID: 0}
    - target: {fileID: 114707763596592168, guid: 71fcc30900666774cb7f7948cbf1ed00,
        type: 2}
      propertyPath: m_Color.r
      value: 0.08477507
      objectReference: {fileID: 0}
    - target: {fileID: 114707763596592168, guid: 71fcc30900666774cb7f7948cbf1ed00,
        type: 2}
      propertyPath: m_Color.g
      value: 0.8235294
      objectReference: {fileID: 0}
    - target: {fileID: 114707763596592168, guid: 71fcc30900666774cb7f7948cbf1ed00,
        type: 2}
      propertyPath: m_Color.b
      value: 0.24271579
      objectReference: {fileID: 0}
    - target: {fileID: 114707763596592168, guid: 71fcc30900666774cb7f7948cbf1ed00,
        type: 2}
      propertyPath: m_FontData.m_Font
      value: 
      objectReference: {fileID: 12800000, guid: ed15c8dd8fa0c0f4e9e7e33cdbbbbeec,
        type: 3}
    - target: {fileID: 114707763596592168, guid: 71fcc30900666774cb7f7948cbf1ed00,
        type: 2}
      propertyPath: m_FontData.m_FontSize
      value: 100
      objectReference: {fileID: 0}
    - target: {fileID: 114707763596592168, guid: 71fcc30900666774cb7f7948cbf1ed00,
        type: 2}
      propertyPath: m_Text
      value: VICTORY
      objectReference: {fileID: 0}
    - target: {fileID: 114707763596592168, guid: 71fcc30900666774cb7f7948cbf1ed00,
        type: 2}
      propertyPath: m_FontData.m_MinSize
      value: 0
      objectReference: {fileID: 0}
    - target: {fileID: 114707763596592168, guid: 71fcc30900666774cb7f7948cbf1ed00,
        type: 2}
      propertyPath: m_FontData.m_BestFit
      value: 1
      objectReference: {fileID: 0}
    - target: {fileID: 224897612513592922, guid: 71fcc30900666774cb7f7948cbf1ed00,
        type: 2}
      propertyPath: m_AnchorMax.x
      value: 1
      objectReference: {fileID: 0}
    - target: {fileID: 224897612513592922, guid: 71fcc30900666774cb7f7948cbf1ed00,
        type: 2}
      propertyPath: m_AnchoredPosition.x
      value: 0
      objectReference: {fileID: 0}
    - target: {fileID: 224897612513592922, guid: 71fcc30900666774cb7f7948cbf1ed00,
        type: 2}
      propertyPath: m_SizeDelta.x
      value: 0
      objectReference: {fileID: 0}
    - target: {fileID: 224897612513592922, guid: 71fcc30900666774cb7f7948cbf1ed00,
        type: 2}
      propertyPath: m_AnchorMax.y
      value: 0.85
      objectReference: {fileID: 0}
    - target: {fileID: 224897612513592922, guid: 71fcc30900666774cb7f7948cbf1ed00,
        type: 2}
      propertyPath: m_AnchoredPosition.y
      value: 0
      objectReference: {fileID: 0}
    - target: {fileID: 224897612513592922, guid: 71fcc30900666774cb7f7948cbf1ed00,
        type: 2}
      propertyPath: m_SizeDelta.y
      value: 0
      objectReference: {fileID: 0}
    - target: {fileID: 224897612513592922, guid: 71fcc30900666774cb7f7948cbf1ed00,
        type: 2}
      propertyPath: m_AnchorMin.y
      value: 0.5
      objectReference: {fileID: 0}
    - target: {fileID: 114479898088381150, guid: 71fcc30900666774cb7f7948cbf1ed00,
        type: 2}
      propertyPath: m_Colors.m_PressedColor.r
      value: 0.57254905
      objectReference: {fileID: 0}
    - target: {fileID: 114479898088381150, guid: 71fcc30900666774cb7f7948cbf1ed00,
        type: 2}
      propertyPath: m_Colors.m_PressedColor.b
      value: 0.57254905
      objectReference: {fileID: 0}
    - target: {fileID: 114937659613673772, guid: 71fcc30900666774cb7f7948cbf1ed00,
        type: 2}
      propertyPath: m_Colors.m_PressedColor.r
      value: 0.57254905
      objectReference: {fileID: 0}
    - target: {fileID: 114937659613673772, guid: 71fcc30900666774cb7f7948cbf1ed00,
        type: 2}
      propertyPath: m_Colors.m_PressedColor.g
      value: 0.57254905
      objectReference: {fileID: 0}
    - target: {fileID: 114937659613673772, guid: 71fcc30900666774cb7f7948cbf1ed00,
        type: 2}
      propertyPath: m_Colors.m_PressedColor.b
      value: 0.57254905
      objectReference: {fileID: 0}
    - target: {fileID: 114479898088381150, guid: 71fcc30900666774cb7f7948cbf1ed00,
        type: 2}
      propertyPath: m_Colors.m_HighlightedColor.r
      value: 1
      objectReference: {fileID: 0}
    - target: {fileID: 114479898088381150, guid: 71fcc30900666774cb7f7948cbf1ed00,
        type: 2}
      propertyPath: m_Colors.m_HighlightedColor.g
      value: 1
      objectReference: {fileID: 0}
    - target: {fileID: 114479898088381150, guid: 71fcc30900666774cb7f7948cbf1ed00,
        type: 2}
      propertyPath: m_Colors.m_HighlightedColor.b
      value: 1
      objectReference: {fileID: 0}
    - target: {fileID: 114937659613673772, guid: 71fcc30900666774cb7f7948cbf1ed00,
        type: 2}
      propertyPath: m_Colors.m_HighlightedColor.r
      value: 1
      objectReference: {fileID: 0}
    - target: {fileID: 114937659613673772, guid: 71fcc30900666774cb7f7948cbf1ed00,
        type: 2}
      propertyPath: m_Colors.m_HighlightedColor.g
      value: 1
      objectReference: {fileID: 0}
    - target: {fileID: 114937659613673772, guid: 71fcc30900666774cb7f7948cbf1ed00,
        type: 2}
      propertyPath: m_Colors.m_HighlightedColor.b
      value: 1
      objectReference: {fileID: 0}
    - target: {fileID: 1365867484876606, guid: 71fcc30900666774cb7f7948cbf1ed00, type: 2}
      propertyPath: m_IsActive
      value: 1
      objectReference: {fileID: 0}
    - target: {fileID: 1208882964966184, guid: 71fcc30900666774cb7f7948cbf1ed00, type: 2}
      propertyPath: m_IsActive
      value: 1
      objectReference: {fileID: 0}
    - target: {fileID: 1025960649315616, guid: 71fcc30900666774cb7f7948cbf1ed00, type: 2}
      propertyPath: m_IsActive
      value: 1
      objectReference: {fileID: 0}
    - target: {fileID: 1613392478554532, guid: 71fcc30900666774cb7f7948cbf1ed00, type: 2}
      propertyPath: m_IsActive
      value: 1
      objectReference: {fileID: 0}
    - target: {fileID: 1466917785842906, guid: 71fcc30900666774cb7f7948cbf1ed00, type: 2}
      propertyPath: m_IsActive
      value: 1
      objectReference: {fileID: 0}
    - target: {fileID: 1592135972759086, guid: 71fcc30900666774cb7f7948cbf1ed00, type: 2}
      propertyPath: m_IsActive
      value: 1
      objectReference: {fileID: 0}
    - target: {fileID: 114479898088381150, guid: 71fcc30900666774cb7f7948cbf1ed00,
        type: 2}
      propertyPath: m_Navigation.m_SelectOnLeft
      value: 
      objectReference: {fileID: 1833057959}
    - target: {fileID: 114479898088381150, guid: 71fcc30900666774cb7f7948cbf1ed00,
        type: 2}
      propertyPath: m_Navigation.m_SelectOnRight
      value: 
      objectReference: {fileID: 1833057959}
    - target: {fileID: 114479898088381150, guid: 71fcc30900666774cb7f7948cbf1ed00,
        type: 2}
      propertyPath: m_Navigation.m_SelectOnUp
      value: 
      objectReference: {fileID: 0}
    - target: {fileID: 114479898088381150, guid: 71fcc30900666774cb7f7948cbf1ed00,
        type: 2}
      propertyPath: m_Navigation.m_SelectOnDown
      value: 
      objectReference: {fileID: 0}
    - target: {fileID: 114937659613673772, guid: 71fcc30900666774cb7f7948cbf1ed00,
        type: 2}
      propertyPath: m_Navigation.m_SelectOnLeft
      value: 
      objectReference: {fileID: 1833057960}
    - target: {fileID: 114937659613673772, guid: 71fcc30900666774cb7f7948cbf1ed00,
        type: 2}
      propertyPath: m_Navigation.m_SelectOnRight
      value: 
      objectReference: {fileID: 1833057960}
    - target: {fileID: 114937659613673772, guid: 71fcc30900666774cb7f7948cbf1ed00,
        type: 2}
      propertyPath: m_Navigation.m_SelectOnUp
      value: 
      objectReference: {fileID: 0}
    - target: {fileID: 114937659613673772, guid: 71fcc30900666774cb7f7948cbf1ed00,
        type: 2}
      propertyPath: m_Navigation.m_SelectOnDown
      value: 
      objectReference: {fileID: 0}
    - target: {fileID: 114479898088381150, guid: 71fcc30900666774cb7f7948cbf1ed00,
        type: 2}
      propertyPath: m_Colors.m_HighlightedColor.a
      value: 0.5882353
      objectReference: {fileID: 0}
    - target: {fileID: 114937659613673772, guid: 71fcc30900666774cb7f7948cbf1ed00,
        type: 2}
      propertyPath: m_Colors.m_HighlightedColor.a
      value: 0.5882353
      objectReference: {fileID: 0}
    m_RemovedComponents: []
  m_ParentPrefab: {fileID: 100100000, guid: 71fcc30900666774cb7f7948cbf1ed00, type: 2}
  m_IsPrefabParent: 0
--- !u!114 &1833057959 stripped
MonoBehaviour:
  m_PrefabParentObject: {fileID: 114937659613673772, guid: 71fcc30900666774cb7f7948cbf1ed00,
    type: 2}
  m_PrefabInternal: {fileID: 1833057958}
  m_Script: {fileID: 1392445389, guid: f70555f144d8491a825f0804e09c671c, type: 3}
--- !u!114 &1833057960 stripped
MonoBehaviour:
  m_PrefabParentObject: {fileID: 114479898088381150, guid: 71fcc30900666774cb7f7948cbf1ed00,
    type: 2}
  m_PrefabInternal: {fileID: 1833057958}
  m_Script: {fileID: 1392445389, guid: f70555f144d8491a825f0804e09c671c, type: 3}
