%YAML 1.1
%TAG !u! tag:unity3d.com,2011:
--- !u!114 &11400000
MonoBehaviour:
  m_ObjectHideFlags: 0
  m_PrefabParentObject: {fileID: 0}
  m_PrefabInternal: {fileID: 0}
  m_GameObject: {fileID: 0}
  m_Enabled: 1
  m_EditorHideFlags: 0
  m_Script: {fileID: 11500000, guid: 8beb0a2cb4394e0bbd6b3375f8eeca67, type: 3}
  m_Name: MainActivity
  m_EditorClassIdentifier: 
  scene: -632784379
  controller: -456647382
  fragments: []
  menus:
  - {fileID: 11400000, guid: 5655a4056e8ee0c428b490acccc9b7d1, type: 2}
  - {fileID: 11400000, guid: 290599ab4769a184fa525868c4cdc91f, type: 2}
  - {fileID: 11400000, guid: 887d12e58806bd14b9f96c5c70e8cf97, type: 2}
  - {fileID: 11400000, guid: 45aa83ef2b681254f8a11b84eef36ab4, type: 2}
  - {fileID: 11400000, guid: 5d161bf68d447564c950ad43b4bebc63, type: 2}
  - {fileID: 11400000, guid: 686a9da4eaacdba4e93dab4ff8c29da3, type: 2}
  activeFragmentOnLoad: {fileID: 0}
